# Blender v2.79 (sub 0) OBJ File: 'ball10paint.blend'
# www.blender.org
mtllib pool_ball10.mtl
o Sphere_Sphere.001
v -0.000000 0.098079 -0.019509
v -0.000000 0.092388 -0.038268
v -0.000000 0.083147 -0.055557
v -0.000000 0.070711 -0.070711
v -0.000000 0.055557 -0.083147
v -0.000000 0.038268 -0.092388
v -0.000000 0.019509 -0.098079
v -0.000000 0.000000 -0.100000
v -0.000000 -0.019509 -0.098079
v -0.000000 -0.083147 -0.055557
v 0.003806 0.098079 -0.019134
v 0.007466 0.092388 -0.037533
v 0.010839 0.083147 -0.054490
v 0.013795 0.070711 -0.069352
v 0.016221 0.055557 -0.081549
v 0.018024 0.038268 -0.090613
v 0.019134 0.019509 -0.096194
v 0.019509 0.000000 -0.098079
v 0.019134 -0.019509 -0.096194
v 0.018024 -0.038268 -0.090613
v 0.016221 -0.055557 -0.081549
v 0.013795 -0.070711 -0.069352
v 0.010839 -0.083147 -0.054490
v 0.007466 -0.092388 -0.037533
v 0.003806 -0.098079 -0.019134
v 0.007466 0.098079 -0.018024
v 0.014645 0.092388 -0.035355
v 0.021261 0.083147 -0.051328
v 0.027060 0.070711 -0.065328
v 0.031819 0.055557 -0.076818
v 0.035355 0.038268 -0.085355
v 0.037533 0.019509 -0.090613
v 0.038268 0.000000 -0.092388
v 0.037533 -0.019509 -0.090613
v 0.035355 -0.038268 -0.085355
v 0.031819 -0.055557 -0.076818
v 0.027060 -0.070711 -0.065328
v 0.021261 -0.083147 -0.051328
v 0.014645 -0.092388 -0.035355
v 0.007466 -0.098079 -0.018024
v 0.010839 0.098079 -0.016221
v 0.021261 0.092388 -0.031819
v 0.030866 0.083147 -0.046194
v 0.039285 0.070711 -0.058794
v 0.046194 0.055557 -0.069134
v 0.051328 0.038268 -0.076818
v 0.054489 0.019509 -0.081549
v 0.055557 0.000000 -0.083147
v 0.054489 -0.019509 -0.081549
v 0.051328 -0.038268 -0.076818
v 0.046194 -0.055557 -0.069134
v 0.039285 -0.070711 -0.058794
v 0.030866 -0.083147 -0.046194
v 0.021261 -0.092388 -0.031819
v 0.010839 -0.098079 -0.016221
v 0.013795 0.098079 -0.013795
v 0.027060 0.092388 -0.027060
v 0.039285 0.083147 -0.039285
v 0.050000 0.070711 -0.050000
v 0.058794 0.055557 -0.058794
v 0.065328 0.038268 -0.065328
v 0.069352 0.019509 -0.069352
v 0.070711 0.000000 -0.070711
v 0.069352 -0.019509 -0.069352
v 0.065328 -0.038268 -0.065328
v 0.058794 -0.055557 -0.058794
v 0.050000 -0.070711 -0.050000
v 0.039285 -0.083147 -0.039285
v 0.027060 -0.092388 -0.027060
v 0.013795 -0.098079 -0.013795
v 0.016221 0.098079 -0.010839
v 0.031819 0.092388 -0.021261
v 0.046194 0.083147 -0.030866
v 0.058794 0.070711 -0.039285
v 0.069134 0.055557 -0.046194
v 0.076818 0.038268 -0.051328
v 0.081549 0.019509 -0.054490
v 0.083147 0.000000 -0.055557
v 0.081549 -0.019509 -0.054490
v 0.076818 -0.038268 -0.051328
v 0.069134 -0.055557 -0.046194
v 0.058794 -0.070711 -0.039285
v 0.046194 -0.083147 -0.030866
v 0.031819 -0.092388 -0.021261
v 0.016221 -0.098079 -0.010839
v 0.018024 0.098079 -0.007466
v 0.035355 0.092388 -0.014645
v 0.051328 0.083147 -0.021261
v 0.065328 0.070711 -0.027060
v 0.076818 0.055557 -0.031819
v 0.085355 0.038268 -0.035355
v 0.090613 0.019509 -0.037533
v 0.092388 0.000000 -0.038268
v 0.090613 -0.019509 -0.037533
v 0.085355 -0.038268 -0.035355
v 0.076818 -0.055557 -0.031819
v 0.065328 -0.070711 -0.027060
v 0.051328 -0.083147 -0.021261
v 0.035355 -0.092388 -0.014645
v 0.018024 -0.098079 -0.007466
v 0.019134 0.098079 -0.003806
v 0.037533 0.092388 -0.007466
v 0.054489 0.083147 -0.010839
v 0.069352 0.070711 -0.013795
v 0.081549 0.055557 -0.016221
v 0.090613 0.038268 -0.018024
v 0.096194 0.019509 -0.019134
v 0.098079 0.000000 -0.019509
v 0.096194 -0.019509 -0.019134
v 0.090613 -0.038268 -0.018024
v 0.081549 -0.055557 -0.016221
v 0.069352 -0.070711 -0.013795
v 0.054489 -0.083147 -0.010839
v 0.037533 -0.092388 -0.007466
v 0.019134 -0.098079 -0.003806
v 0.019509 0.098079 0.000000
v 0.038268 0.092388 0.000000
v 0.055557 0.083147 0.000000
v 0.070711 0.070711 0.000000
v 0.083147 0.055557 0.000000
v 0.092388 0.038268 -0.000000
v 0.098078 0.019509 0.000000
v 0.100000 0.000000 0.000000
v 0.098078 -0.019509 0.000000
v 0.092388 -0.038268 -0.000000
v 0.083147 -0.055557 0.000000
v 0.070711 -0.070711 0.000000
v 0.055557 -0.083147 0.000000
v 0.038268 -0.092388 0.000000
v 0.019509 -0.098079 0.000000
v 0.019134 0.098079 0.003806
v 0.037533 0.092388 0.007466
v 0.054489 0.083147 0.010839
v 0.069352 0.070711 0.013795
v 0.081549 0.055557 0.016221
v 0.090613 0.038268 0.018024
v 0.096194 0.019509 0.019134
v 0.098079 0.000000 0.019509
v 0.096194 -0.019509 0.019134
v 0.090613 -0.038268 0.018024
v 0.081549 -0.055557 0.016221
v 0.069352 -0.070711 0.013795
v 0.054489 -0.083147 0.010839
v 0.037533 -0.092388 0.007466
v 0.019134 -0.098079 0.003806
v 0.018024 0.098079 0.007466
v 0.035355 0.092388 0.014645
v 0.051328 0.083147 0.021261
v 0.065328 0.070711 0.027060
v 0.076818 0.055557 0.031819
v 0.085355 0.038268 0.035355
v 0.090613 0.019509 0.037533
v 0.092388 0.000000 0.038268
v 0.090613 -0.019509 0.037533
v 0.085355 -0.038268 0.035355
v 0.076818 -0.055557 0.031819
v 0.065328 -0.070711 0.027060
v 0.051328 -0.083147 0.021261
v 0.035355 -0.092388 0.014645
v 0.018024 -0.098079 0.007466
v 0.016221 0.098079 0.010839
v 0.031819 0.092388 0.021261
v 0.046194 0.083147 0.030866
v 0.058794 0.070711 0.039285
v 0.069134 0.055557 0.046194
v 0.076818 0.038268 0.051328
v 0.081549 0.019509 0.054490
v 0.083147 0.000000 0.055557
v 0.081549 -0.019509 0.054490
v 0.076818 -0.038268 0.051328
v 0.069134 -0.055557 0.046194
v 0.058794 -0.070711 0.039285
v 0.046194 -0.083147 0.030866
v 0.031819 -0.092388 0.021261
v 0.016221 -0.098079 0.010839
v 0.013795 0.098079 0.013795
v 0.027060 0.092388 0.027060
v 0.039285 0.083147 0.039285
v 0.050000 0.070711 0.050000
v 0.058794 0.055557 0.058794
v 0.065328 0.038268 0.065328
v 0.069352 0.019509 0.069352
v 0.070711 0.000000 0.070711
v 0.069352 -0.019509 0.069352
v 0.065328 -0.038268 0.065328
v 0.058794 -0.055557 0.058794
v 0.050000 -0.070711 0.050000
v 0.039285 -0.083147 0.039285
v 0.027060 -0.092388 0.027060
v 0.013795 -0.098079 0.013795
v 0.010839 0.098079 0.016221
v 0.021261 0.092388 0.031819
v 0.030866 0.083147 0.046194
v 0.039285 0.070711 0.058794
v 0.046194 0.055557 0.069134
v 0.051328 0.038268 0.076818
v 0.054489 0.019509 0.081549
v 0.055557 0.000000 0.083147
v 0.054489 -0.019509 0.081549
v 0.051328 -0.038268 0.076818
v 0.046194 -0.055557 0.069134
v 0.039285 -0.070711 0.058794
v 0.030866 -0.083147 0.046194
v 0.021261 -0.092388 0.031819
v 0.010839 -0.098079 0.016221
v -0.000000 -0.100000 0.000000
v 0.007466 0.098079 0.018024
v 0.014645 0.092388 0.035355
v 0.021261 0.083147 0.051328
v 0.027060 0.070711 0.065328
v 0.031819 0.055557 0.076818
v 0.035355 0.038268 0.085355
v 0.037533 0.019509 0.090613
v 0.038268 0.000000 0.092388
v 0.037533 -0.019509 0.090613
v 0.035355 -0.038268 0.085355
v 0.031819 -0.055557 0.076818
v 0.027060 -0.070711 0.065328
v 0.021261 -0.083147 0.051328
v 0.014645 -0.092388 0.035355
v 0.007466 -0.098079 0.018024
v 0.003806 0.098079 0.019134
v 0.007466 0.092388 0.037533
v 0.010839 0.083147 0.054490
v 0.013795 0.070711 0.069352
v 0.016221 0.055557 0.081549
v 0.018024 0.038268 0.090613
v 0.019134 0.019509 0.096194
v 0.019509 0.000000 0.098079
v 0.019134 -0.019509 0.096194
v 0.018024 -0.038268 0.090613
v 0.016221 -0.055557 0.081549
v 0.013795 -0.070711 0.069352
v 0.010839 -0.083147 0.054490
v 0.007466 -0.092388 0.037533
v 0.003806 -0.098079 0.019134
v -0.000000 0.098079 0.019509
v -0.000000 0.092388 0.038268
v -0.000000 0.083147 0.055557
v -0.000000 0.070711 0.070711
v -0.000000 0.055557 0.083147
v -0.000000 0.038268 0.092388
v -0.000000 0.019509 0.098079
v -0.000000 0.000000 0.100000
v -0.000000 -0.019509 0.098079
v -0.000000 -0.038268 0.092388
v -0.000000 -0.055557 0.083147
v -0.000000 -0.070711 0.070711
v -0.000000 -0.083147 0.055557
v -0.000000 -0.092388 0.038268
v -0.000000 -0.098079 0.019509
v -0.003806 0.098079 0.019134
v -0.007466 0.092388 0.037533
v -0.010839 0.083147 0.054490
v -0.013795 0.070711 0.069352
v -0.016221 0.055557 0.081549
v -0.018024 0.038268 0.090613
v -0.019134 0.019509 0.096194
v -0.019509 0.000000 0.098079
v -0.019134 -0.019509 0.096194
v -0.018024 -0.038268 0.090613
v -0.016221 -0.055557 0.081549
v -0.013795 -0.070711 0.069352
v -0.010839 -0.083147 0.054490
v -0.007466 -0.092388 0.037533
v -0.003806 -0.098079 0.019134
v -0.007466 0.098079 0.018024
v -0.014645 0.092388 0.035355
v -0.021261 0.083147 0.051328
v -0.027060 0.070711 0.065328
v -0.031819 0.055557 0.076818
v -0.035355 0.038268 0.085355
v -0.037533 0.019509 0.090613
v -0.038268 0.000000 0.092388
v -0.037533 -0.019509 0.090613
v -0.035355 -0.038268 0.085355
v -0.031819 -0.055557 0.076818
v -0.027060 -0.070711 0.065328
v -0.021261 -0.083147 0.051328
v -0.014645 -0.092388 0.035355
v -0.007466 -0.098079 0.018024
v -0.010839 0.098079 0.016221
v -0.021261 0.092388 0.031819
v -0.030866 0.083147 0.046194
v -0.039285 0.070711 0.058794
v -0.046194 0.055557 0.069134
v -0.051328 0.038268 0.076818
v -0.054490 0.019509 0.081549
v -0.055557 0.000000 0.083147
v -0.054490 -0.019509 0.081549
v -0.051328 -0.038268 0.076818
v -0.046194 -0.055557 0.069134
v -0.039285 -0.070711 0.058794
v -0.030866 -0.083147 0.046194
v -0.021261 -0.092388 0.031819
v -0.010839 -0.098079 0.016221
v -0.000000 0.100000 0.000000
v -0.013795 0.098079 0.013795
v -0.027060 0.092388 0.027060
v -0.039285 0.083147 0.039285
v -0.050000 0.070711 0.050000
v -0.058794 0.055557 0.058794
v -0.065328 0.038268 0.065328
v -0.069352 0.019509 0.069352
v -0.070711 0.000000 0.070711
v -0.069352 -0.019509 0.069352
v -0.065328 -0.038268 0.065328
v -0.058794 -0.055557 0.058794
v -0.050000 -0.070711 0.050000
v -0.039285 -0.083147 0.039285
v -0.027060 -0.092388 0.027060
v -0.013795 -0.098079 0.013795
v -0.016221 0.098079 0.010839
v -0.031819 0.092388 0.021261
v -0.046194 0.083147 0.030866
v -0.058794 0.070711 0.039285
v -0.069134 0.055557 0.046194
v -0.076818 0.038268 0.051328
v -0.081549 0.019509 0.054489
v -0.083147 0.000000 0.055557
v -0.081549 -0.019509 0.054489
v -0.076818 -0.038268 0.051328
v -0.069134 -0.055557 0.046194
v -0.058794 -0.070711 0.039285
v -0.046194 -0.083147 0.030866
v -0.031819 -0.092388 0.021261
v -0.016221 -0.098079 0.010839
v -0.018024 0.098079 0.007466
v -0.035355 0.092388 0.014645
v -0.051328 0.083147 0.021261
v -0.065328 0.070711 0.027060
v -0.076818 0.055557 0.031819
v -0.085355 0.038268 0.035355
v -0.090613 0.019509 0.037533
v -0.092388 0.000000 0.038268
v -0.090613 -0.019509 0.037533
v -0.085355 -0.038268 0.035355
v -0.076818 -0.055557 0.031819
v -0.065328 -0.070711 0.027060
v -0.051328 -0.083147 0.021261
v -0.035355 -0.092388 0.014645
v -0.018024 -0.098079 0.007466
v -0.019134 0.098079 0.003806
v -0.037533 0.092388 0.007466
v -0.054490 0.083147 0.010839
v -0.069352 0.070711 0.013795
v -0.081549 0.055557 0.016221
v -0.090613 0.038268 0.018024
v -0.096194 0.019509 0.019134
v -0.098079 0.000000 0.019509
v -0.096194 -0.019509 0.019134
v -0.090613 -0.038268 0.018024
v -0.081549 -0.055557 0.016221
v -0.069352 -0.070711 0.013795
v -0.054490 -0.083147 0.010839
v -0.037533 -0.092388 0.007466
v -0.019134 -0.098079 0.003806
v -0.019509 0.098079 0.000000
v -0.038268 0.092388 0.000000
v -0.055557 0.083147 0.000000
v -0.070711 0.070711 -0.000000
v -0.083147 0.055557 -0.000000
v -0.092388 0.038268 0.000000
v -0.098079 0.019509 -0.000000
v -0.100000 0.000000 -0.000000
v -0.098079 -0.019509 -0.000000
v -0.092388 -0.038268 0.000000
v -0.083147 -0.055557 -0.000000
v -0.070711 -0.070711 -0.000000
v -0.055557 -0.083147 -0.000000
v -0.038268 -0.092388 -0.000000
v -0.019509 -0.098079 0.000000
v -0.019134 0.098079 -0.003806
v -0.037533 0.092388 -0.007466
v -0.054490 0.083147 -0.010839
v -0.069352 0.070711 -0.013795
v -0.081549 0.055557 -0.016221
v -0.090613 0.038268 -0.018024
v -0.096194 0.019509 -0.019134
v -0.098079 0.000000 -0.019509
v -0.096194 -0.019509 -0.019134
v -0.090613 -0.038268 -0.018024
v -0.081549 -0.055557 -0.016221
v -0.069352 -0.070711 -0.013795
v -0.054490 -0.083147 -0.010839
v -0.037533 -0.092388 -0.007466
v -0.019134 -0.098079 -0.003806
v -0.018024 0.098079 -0.007466
v -0.035355 0.092388 -0.014645
v -0.051328 0.083147 -0.021261
v -0.065328 0.070711 -0.027060
v -0.076818 0.055557 -0.031819
v -0.085355 0.038268 -0.035355
v -0.090613 0.019509 -0.037533
v -0.092388 0.000000 -0.038268
v -0.090613 -0.019509 -0.037533
v -0.085355 -0.038268 -0.035355
v -0.076818 -0.055557 -0.031819
v -0.065328 -0.070711 -0.027060
v -0.051328 -0.083147 -0.021261
v -0.035355 -0.092388 -0.014645
v -0.018024 -0.098079 -0.007466
v -0.016221 0.098079 -0.010839
v -0.031819 0.092388 -0.021261
v -0.046194 0.083147 -0.030866
v -0.058794 0.070711 -0.039285
v -0.069134 0.055557 -0.046194
v -0.076818 0.038268 -0.051328
v -0.081549 0.019509 -0.054490
v -0.083147 0.000000 -0.055557
v -0.081549 -0.019509 -0.054490
v -0.076818 -0.038268 -0.051328
v -0.069134 -0.055557 -0.046194
v -0.058794 -0.070711 -0.039285
v -0.046194 -0.083147 -0.030866
v -0.031819 -0.092388 -0.021261
v -0.016221 -0.098079 -0.010839
v -0.013795 0.098079 -0.013795
v -0.027060 0.092388 -0.027060
v -0.039285 0.083147 -0.039285
v -0.050000 0.070711 -0.050000
v -0.058794 0.055557 -0.058794
v -0.065328 0.038268 -0.065328
v -0.069352 0.019509 -0.069352
v -0.070711 0.000000 -0.070711
v -0.069352 -0.019509 -0.069352
v -0.065328 -0.038268 -0.065328
v -0.058794 -0.055557 -0.058794
v -0.050000 -0.070711 -0.050000
v -0.039285 -0.083147 -0.039285
v -0.027060 -0.092388 -0.027060
v -0.013795 -0.098079 -0.013795
v -0.010839 0.098079 -0.016221
v -0.021261 0.092388 -0.031819
v -0.030866 0.083147 -0.046194
v -0.039285 0.070711 -0.058794
v -0.046194 0.055557 -0.069134
v -0.051328 0.038268 -0.076818
v -0.054490 0.019509 -0.081549
v -0.055557 0.000000 -0.083147
v -0.054490 -0.019509 -0.081549
v -0.051328 -0.038268 -0.076818
v -0.046194 -0.055557 -0.069134
v -0.039285 -0.070711 -0.058794
v -0.030866 -0.083147 -0.046194
v -0.021261 -0.092388 -0.031819
v -0.010839 -0.098079 -0.016221
v -0.007466 0.098079 -0.018024
v -0.014645 0.092388 -0.035355
v -0.021261 0.083147 -0.051328
v -0.027060 0.070711 -0.065328
v -0.031819 0.055557 -0.076818
v -0.035355 0.038268 -0.085355
v -0.037533 0.019509 -0.090613
v -0.038268 0.000000 -0.092388
v -0.037533 -0.019509 -0.090613
v -0.035355 -0.038268 -0.085355
v -0.031819 -0.055557 -0.076818
v -0.027060 -0.070711 -0.065328
v -0.021261 -0.083147 -0.051328
v -0.014645 -0.092388 -0.035355
v -0.007466 -0.098079 -0.018024
v -0.003806 0.098079 -0.019134
v -0.007466 0.092388 -0.037533
v -0.010839 0.083147 -0.054490
v -0.013795 0.070711 -0.069352
v -0.016221 0.055557 -0.081549
v -0.018024 0.038268 -0.090613
v -0.019134 0.019509 -0.096194
v -0.019509 0.000000 -0.098079
v -0.019134 -0.019509 -0.096194
v -0.018024 -0.038268 -0.090613
v -0.016221 -0.055557 -0.081549
v -0.013795 -0.070711 -0.069352
v -0.010839 -0.083147 -0.054489
v -0.007466 -0.092388 -0.037533
v -0.003806 -0.098079 -0.019134
v -0.000000 -0.038268 -0.092388
v -0.000000 -0.055557 -0.083147
v -0.000000 -0.070711 -0.070711
v -0.000000 -0.092388 -0.038268
v -0.000000 -0.098079 -0.019509
vt 0.342300 0.238898
vt 0.342447 0.289176
vt 0.315127 0.289474
vt 0.314442 0.239202
vt 0.342837 0.590845
vt 0.342903 0.641123
vt 0.317250 0.641403
vt 0.316943 0.591128
vt 0.342011 0.188620
vt 0.313104 0.188936
vt 0.342781 0.540567
vt 0.316679 0.540852
vt 0.341053 0.138344
vt 0.308692 0.138697
vt 0.342727 0.490288
vt 0.316431 0.490576
vt 0.343865 0.842234
vt 0.349826 0.892501
vt 0.321755 0.842476
vt 0.770284 0.107499
vt 1.181971 0.138344
vt 1.149611 0.138697
vt 0.342673 0.440010
vt 0.316179 0.440300
vt 0.343324 0.791957
vt 0.319214 0.792220
vt 0.342614 0.389732
vt 0.315902 0.390024
vt 0.343109 0.741679
vt 0.318212 0.741951
vt 0.342542 0.339454
vt 0.315570 0.339749
vt 0.342987 0.691401
vt 0.317642 0.691678
vt 0.288638 0.340414
vt 0.287866 0.290148
vt 0.292258 0.692305
vt 0.291570 0.642038
vt 0.286678 0.239888
vt 0.291033 0.591768
vt 0.284368 0.189646
vt 0.290571 0.541497
vt 0.276859 0.139486
vt 0.290137 0.491225
vt 0.299527 0.843026
vt 1.117777 0.139486
vt 0.289698 0.440954
vt 0.295026 0.792818
vt 0.289216 0.390683
vt 0.293259 0.742567
vt 0.277089 0.843871
vt 1.086800 0.140656
vt 0.263850 0.492212
vt 0.263240 0.441947
vt 0.270695 0.793733
vt 0.262572 0.391683
vt 0.268209 0.743508
vt 0.261773 0.341422
vt 0.266806 0.693261
vt 0.260709 0.291167
vt 0.265845 0.643003
vt 0.259076 0.240925
vt 0.265096 0.592741
vt 0.255923 0.190715
vt 0.264452 0.542477
vt 0.245881 0.140656
vt 0.241256 0.694511
vt 0.240054 0.644266
vt 0.233691 0.292490
vt 0.231691 0.242266
vt 0.239119 0.594013
vt 0.227862 0.192091
vt 0.238318 0.543756
vt 0.215969 0.142135
vt 0.237570 0.493498
vt 0.254339 0.844992
vt 1.056887 0.142135
vt 0.236814 0.443240
vt 0.246159 0.794935
vt 0.235987 0.392984
vt 0.243018 0.744742
vt 0.235000 0.342733
vt 0.211297 0.495034
vt 0.210424 0.444783
vt 0.231170 0.846359
vt 0.221357 0.796389
vt 0.209472 0.394534
vt 0.217648 0.746226
vt 0.208338 0.344291
vt 0.215583 0.696013
vt 0.206841 0.294060
vt 0.214179 0.645778
vt 0.204565 0.243853
vt 0.213092 0.595534
vt 0.200252 0.193709
vt 0.212162 0.545285
vt 0.187214 0.143840
vt 1.028133 0.143840
vt 0.180178 0.295813
vt 0.177727 0.245619
vt 0.188205 0.647486
vt 0.187004 0.597249
vt 0.173127 0.195499
vt 0.185981 0.547006
vt 0.159612 0.145686
vt 0.185030 0.496760
vt 0.207469 0.847937
vt 1.000531 0.145686
vt 0.184074 0.446515
vt 0.196230 0.798046
vt 0.183034 0.396272
vt 0.192062 0.747910
vt 0.181801 0.346036
vt 0.189760 0.697711
vt 0.157766 0.448369
vt 0.156680 0.398130
vt 0.170722 0.799850
vt 0.166227 0.749734
vt 0.155395 0.347898
vt 0.163768 0.699544
vt 0.153713 0.297680
vt 0.162116 0.649325
vt 0.151186 0.247493
vt 0.160846 0.599093
vt 0.146498 0.197383
vt 0.159767 0.548853
vt 0.133092 0.147590
vt 0.158768 0.498611
vt 0.183112 0.849681
vt 0.974011 0.147590
vt 0.124944 0.249398
vt 0.120349 0.199287
vt 0.134611 0.600995
vt 0.133518 0.550757
vt 0.107544 0.149476
vt 0.132508 0.500515
vt 0.157969 0.851536
vt 0.948463 0.149476
vt 0.131499 0.450273
vt 0.144785 0.801739
vt 0.130408 0.400035
vt 0.140117 0.751630
vt 0.129122 0.349803
vt 0.137590 0.701444
vt 0.127446 0.299586
vt 0.135903 0.651227
vt 0.118379 0.803641
vt 0.113715 0.753528
vt 0.104215 0.401915
vt 0.102977 0.351680
vt 0.111216 0.703337
vt 0.101370 0.301458
vt 0.109558 0.653118
vt 0.098985 0.251264
vt 0.108295 0.602884
vt 0.094649 0.201139
vt 0.107229 0.552643
vt 0.082841 0.151278
vt 0.106247 0.502399
vt 0.131911 0.853441
vt 0.923760 0.151278
vt 0.105269 0.452156
vt 0.081896 0.604685
vt 0.080898 0.554440
vt 0.069353 0.202871
vt 0.058854 0.152938
vt 0.079983 0.504192
vt 0.104819 0.855323
vt 0.899773 0.152938
vt 0.079073 0.453943
vt 0.091483 0.805484
vt 0.078096 0.403697
vt 0.087013 0.755352
vt 0.076952 0.353456
vt 0.084644 0.705152
vt 0.075472 0.303227
vt 0.083081 0.654925
vt 0.073288 0.253020
vt 0.052042 0.405315
vt 0.051033 0.355066
vt 0.060017 0.757031
vt 0.057878 0.706815
vt 0.049733 0.304826
vt 0.056475 0.656577
vt 0.047823 0.254603
vt 0.055416 0.606330
vt 0.044409 0.204424
vt 0.054526 0.556078
vt 0.035455 0.154407
vt 0.053713 0.505823
vt 0.076600 0.857103
vt 0.876374 0.154407
vt 0.052906 0.455568
vt 0.064094 0.807190
vt 0.019758 0.205748
vt 0.012526 0.155646
vt 0.028116 0.557492
vt 0.027436 0.507231
vt 0.047216 0.858697
vt 0.853445 0.155646
vt 0.026763 0.456969
vt 0.036234 0.808686
vt 0.026044 0.406708
vt 0.032747 0.758493
vt 0.025206 0.356450
vt 0.030935 0.708259
vt 0.024129 0.306198
vt 0.029752 0.658009
vt 0.022555 0.255958
vt 0.028861 0.607753
vt 0.005239 0.759676
vt 0.003837 0.709424
vt -0.000547 0.357557
vt -0.001364 0.307294
vt 0.002926 0.659162
vt -0.002555 0.257038
vt 0.002243 0.608897
vt -0.004659 0.206799
vt 0.001672 0.558629
vt -0.010043 0.156621
vt 0.001152 0.508361
vt 0.016709 0.860019
vt 0.830876 0.156621
vt 0.000638 0.458092
vt 0.007955 0.809904
vt 0.000090 0.407824
vt 0.842070 0.508361
vt 0.842590 0.558629
vt 0.816119 0.559443
vt 0.815780 0.509169
vt -0.014764 0.860991
vt 0.808564 0.157309
vt 0.841557 0.458092
vt 0.815445 0.458895
vt 0.848874 0.809904
vt 0.857628 0.860019
vt 0.826155 0.860991
vt 0.820259 0.810784
vt 0.841008 0.407824
vt 0.815088 0.408621
vt 0.846157 0.759676
vt 0.818460 0.760528
vt 0.840371 0.357557
vt 0.814673 0.358348
vt 0.844756 0.709424
vt 0.817538 0.710261
vt 0.839554 0.307294
vt 0.814143 0.308076
vt 0.843845 0.659162
vt 0.816940 0.659990
vt 0.838364 0.257038
vt 0.813371 0.257807
vt 0.843161 0.608897
vt 0.816492 0.609717
vt 0.836259 0.206799
vt 0.812013 0.207546
vt 0.789010 0.358793
vt 0.788783 0.308516
vt 0.790239 0.710735
vt 0.789982 0.660458
vt 0.788454 0.258240
vt 0.789790 0.610180
vt 0.787875 0.207965
vt 0.789630 0.559903
vt 0.786411 0.157694
vt 0.789484 0.509626
vt 1.190745 0.892501
vt 0.793989 0.861550
vt 0.789340 0.459348
vt 0.791415 0.811285
vt 0.789188 0.409071
vt 0.790637 0.761011
vt 0.764325 0.157766
vt 0.763187 0.509712
vt 0.763240 0.459434
vt 0.761512 0.861656
vt 0.762470 0.811380
vt 0.763297 0.409155
vt 0.762759 0.761102
vt 0.763363 0.358877
vt 0.762906 0.710824
vt 0.763446 0.308599
vt 0.763002 0.660546
vt 0.763568 0.258321
vt 0.763073 0.610268
vt 0.763783 0.208043
vt 0.763133 0.559990
vt 0.738101 0.308322
vt 0.738671 0.258049
vt 0.736030 0.660251
vt 0.736362 0.609976
vt 0.739674 0.207780
vt 0.736638 0.559700
vt 0.742214 0.157525
vt 0.736890 0.509424
vt 0.729152 0.861303
vt 0.737138 0.459148
vt 0.733563 0.811064
vt 0.737402 0.408873
vt 0.734901 0.760798
vt 0.737709 0.358597
vt 0.735586 0.710526
vt 0.697319 0.860514
vt 0.704828 0.810354
vt 0.711030 0.458503
vt 0.711493 0.408233
vt 0.707138 0.760112
vt 0.712029 0.357963
vt 0.708326 0.709852
vt 0.712717 0.307695
vt 0.709097 0.659586
vt 0.713719 0.257433
vt 0.709675 0.609317
vt 0.715485 0.207182
vt 0.710157 0.559046
vt 0.719987 0.156974
vt 0.710597 0.508775
vt 0.682232 0.658578
vt 0.683032 0.608317
vt 0.688668 0.256492
vt 0.691154 0.206268
vt 0.683700 0.558053
vt 0.697548 0.156129
vt 0.684309 0.507788
vt 0.666341 0.859344
vt 0.684912 0.457523
vt 0.676382 0.809285
vt 0.685555 0.407259
vt 0.679535 0.759075
vt 0.686304 0.356997
vt 0.681168 0.708833
vt 0.687265 0.306740
vt 0.658777 0.456244
vt 0.659579 0.405988
vt 0.648322 0.807909
vt 0.652150 0.757734
vt 0.660513 0.355734
vt 0.654150 0.707510
vt 0.661716 0.305489
vt 0.655459 0.657267
vt 0.663478 0.255258
vt 0.656446 0.607016
vt 0.666619 0.205065
vt 0.657273 0.556760
vt 0.674798 0.155008
vt 0.658029 0.506502
vt 0.636428 0.857865
vt 0.638108 0.253774
vt 0.641817 0.203611
vt 0.629931 0.605466
vt 0.630883 0.555217
vt 0.651630 0.153641
vt 0.631756 0.504966
vt 0.607674 0.856160
vt 0.632622 0.454715
vt 0.620711 0.806291
vt 0.633552 0.404466
vt 0.625025 0.756147
vt 0.634639 0.354222
vt 0.627301 0.705940
vt 0.636042 0.303987
vt 0.628798 0.655709
vt 0.593587 0.804501
vt 0.598186 0.754381
vt 0.607464 0.402751
vt 0.608664 0.352514
vt 0.600638 0.704187
vt 0.610220 0.302289
vt 0.602261 0.653964
vt 0.612522 0.252090
vt 0.603494 0.603728
vt 0.616690 0.201954
vt 0.604534 0.553485
vt 0.627929 0.152063
vt 0.605489 0.503240
vt 0.580072 0.854314
vt 0.606440 0.452994
vt 0.577139 0.601871
vt 0.578225 0.551631
vt 0.591182 0.200150
vt 0.603571 0.150319
vt 0.579227 0.501389
vt 0.553552 0.852411
vt 0.580227 0.451147
vt 0.566958 0.802617
vt 0.581306 0.400907
vt 0.571646 0.752508
vt 0.582575 0.350675
vt 0.574172 0.702320
vt 0.584228 0.300456
vt 0.575855 0.652103
vt 0.586687 0.250266
vt 0.555071 0.399005
vt 0.556362 0.348773
vt 0.545403 0.750602
vt 0.547905 0.700414
vt 0.558050 0.298557
vt 0.549582 0.650197
vt 0.560577 0.248370
vt 0.550867 0.599965
vt 0.565244 0.198261
vt 0.551958 0.549727
vt 0.578429 0.148464
vt 0.552967 0.499485
vt 0.528004 0.850524
vt 0.553977 0.449243
vt 0.540808 0.800713
vt 0.538839 0.196359
vt 0.552371 0.146559
vt 0.525728 0.547845
vt 0.526707 0.497601
vt 0.503301 0.848722
vt 0.527688 0.447357
vt 0.515108 0.798862
vt 0.528754 0.397116
vt 0.519445 0.748736
vt 0.530018 0.346882
vt 0.521829 0.698542
vt 0.531676 0.296663
vt 0.523437 0.648320
vt 0.534175 0.246472
vt 0.524675 0.598086
vt 0.503540 0.345075
vt 0.505103 0.294848
vt 0.495931 0.696774
vt 0.497411 0.646544
vt 0.507473 0.244648
vt 0.498555 0.596303
vt 0.511942 0.194516
vt 0.499533 0.546057
vt 0.525279 0.144677
vt 0.500442 0.495808
vt 0.479313 0.847062
vt 0.501357 0.445560
vt 0.489812 0.797129
vt 0.502355 0.395315
vt 0.493748 0.746980
vt 0.455915 0.845593
vt 0.497060 0.142897
vt 0.474172 0.494177
vt 0.474986 0.443923
vt 0.464868 0.795576
vt 0.475875 0.393670
vt 0.468282 0.745397
vt 0.476935 0.343423
vt 0.470192 0.695174
vt 0.478338 0.293185
vt 0.471493 0.644934
vt 0.480477 0.242969
vt 0.472501 0.594685
vt 0.484553 0.192810
vt 0.473366 0.544432
vt 0.444589 0.693802
vt 0.445665 0.643550
vt 0.451394 0.291741
vt 0.453207 0.241507
vt 0.446503 0.593292
vt 0.456693 0.191314
vt 0.447222 0.543031
vt 0.467675 0.141303
vt 0.447895 0.492769
vt 0.432986 0.844355
vt 0.448576 0.442508
vt 0.440218 0.794252
vt 0.449320 0.392248
vt 0.443014 0.744042
vt 0.450211 0.341991
vt 0.421611 0.491639
vt 0.422131 0.441371
vt 0.410417 0.843379
vt 0.415800 0.793201
vt 0.422702 0.391103
vt 0.417904 0.742962
vt 0.423386 0.340838
vt 0.419095 0.692706
vt 0.424297 0.290576
vt 0.419912 0.642443
vt 0.425698 0.240324
vt 0.420549 0.592176
vt 0.428415 0.190096
vt 0.421097 0.541908
vt 0.437169 0.139981
vt 0.397079 0.289739
vt 0.398001 0.239472
vt 0.394214 0.641652
vt 0.394628 0.591379
vt 0.399799 0.189215
vt 0.394985 0.541105
vt 0.405695 0.139009
vt 0.395320 0.490831
vt 0.388104 0.842691
vt 0.395660 0.440557
vt 0.391554 0.792455
vt 0.396033 0.390283
vt 0.392912 0.742193
vt 0.396481 0.340010
vt 0.393683 0.691924
vt 0.365951 0.842306
vt 0.367416 0.792036
vt 0.369170 0.440097
vt 0.369331 0.389820
vt 0.367995 0.741760
vt 0.369523 0.339542
vt 0.368324 0.691484
vt 0.369780 0.289265
vt 0.368551 0.641207
vt 0.370178 0.238989
vt 0.368728 0.590930
vt 0.370955 0.188715
vt 0.368881 0.540652
vt 0.373531 0.138450
vt 0.369025 0.490375
vn 0.0624 -0.7715 -0.6332
vn 0.0865 0.4696 -0.8786
vn 0.0464 -0.8810 -0.4709
vn 0.0938 0.2890 -0.9527
vn 0.0286 -0.9565 -0.2902
vn 0.0976 0.0976 -0.9904
vn 0.0097 0.9951 -0.0980
vn 0.0097 -0.9951 -0.0980
vn 0.0976 -0.0975 -0.9904
vn 0.0286 0.9565 -0.2902
vn 0.0938 -0.2890 -0.9527
vn 0.0464 0.8810 -0.4709
vn 0.0865 -0.4696 -0.8786
vn 0.0624 0.7715 -0.6332
vn 0.0759 -0.6326 -0.7708
vn 0.0759 0.6326 -0.7708
vn 0.2248 -0.6326 -0.7412
vn 0.2248 0.6326 -0.7412
vn 0.1847 -0.7715 -0.6088
vn 0.2563 0.4696 -0.8448
vn 0.1374 -0.8810 -0.4528
vn 0.2779 0.2890 -0.9161
vn 0.0846 -0.9565 -0.2790
vn 0.2889 0.0976 -0.9524
vn 0.0286 0.9951 -0.0942
vn 0.0286 -0.9951 -0.0942
vn 0.2889 -0.0975 -0.9524
vn 0.0846 0.9565 -0.2790
vn 0.2779 -0.2890 -0.9161
vn 0.1374 0.8810 -0.4528
vn 0.2563 -0.4696 -0.8448
vn 0.1847 0.7715 -0.6088
vn 0.0464 0.9951 -0.0869
vn 0.0464 -0.9951 -0.0869
vn 0.4691 -0.0976 -0.8777
vn 0.1374 0.9565 -0.2571
vn 0.4513 -0.2890 -0.8443
vn 0.2230 0.8810 -0.4173
vn 0.4162 -0.4696 -0.7786
vn 0.2999 0.7715 -0.5611
vn 0.3651 -0.6326 -0.6831
vn 0.3651 0.6326 -0.6831
vn 0.2999 -0.7715 -0.5611
vn 0.4162 0.4696 -0.7786
vn 0.2230 -0.8810 -0.4173
vn 0.4513 0.2890 -0.8443
vn 0.1374 -0.9565 -0.2571
vn 0.4691 0.0976 -0.8777
vn 0.4913 0.6326 -0.5987
vn 0.4036 -0.7715 -0.4918
vn 0.5601 0.4696 -0.6825
vn 0.3002 -0.8810 -0.3658
vn 0.6073 0.2890 -0.7400
vn 0.1850 -0.9565 -0.2254
vn 0.6314 0.0976 -0.7693
vn 0.0625 0.9951 -0.0761
vn 0.0625 -0.9951 -0.0761
vn 0.6314 -0.0976 -0.7693
vn 0.1850 0.9565 -0.2254
vn 0.6073 -0.2890 -0.7400
vn 0.3002 0.8810 -0.3658
vn 0.5601 -0.4696 -0.6825
vn 0.4036 0.7715 -0.4918
vn 0.4913 -0.6326 -0.5987
vn 0.7693 -0.0976 -0.6314
vn 0.2254 0.9565 -0.1850
vn 0.7400 -0.2890 -0.6073
vn 0.3658 0.8810 -0.3002
vn 0.6825 -0.4696 -0.5601
vn 0.4918 0.7715 -0.4036
vn 0.5987 -0.6326 -0.4913
vn 0.5987 0.6326 -0.4913
vn 0.4918 -0.7715 -0.4036
vn 0.6825 0.4696 -0.5601
vn 0.3658 -0.8810 -0.3002
vn 0.7400 0.2890 -0.6073
vn 0.2254 -0.9565 -0.1850
vn 0.7693 0.0976 -0.6314
vn 0.0761 0.9951 -0.0625
vn 0.0761 -0.9951 -0.0625
vn 0.5611 -0.7715 -0.2999
vn 0.7786 0.4696 -0.4162
vn 0.4173 -0.8810 -0.2230
vn 0.8443 0.2890 -0.4513
vn 0.2571 -0.9565 -0.1374
vn 0.8777 0.0976 -0.4691
vn 0.0869 0.9951 -0.0464
vn 0.0869 -0.9951 -0.0464
vn 0.8777 -0.0976 -0.4691
vn 0.2571 0.9565 -0.1374
vn 0.8443 -0.2890 -0.4513
vn 0.4173 0.8810 -0.2231
vn 0.7786 -0.4696 -0.4162
vn 0.5611 0.7715 -0.2999
vn 0.6831 -0.6326 -0.3651
vn 0.6831 0.6326 -0.3651
vn 0.9161 -0.2890 -0.2779
vn 0.4528 0.8810 -0.1374
vn 0.8448 -0.4696 -0.2563
vn 0.6088 0.7715 -0.1847
vn 0.7412 -0.6326 -0.2248
vn 0.7412 0.6326 -0.2248
vn 0.6088 -0.7715 -0.1847
vn 0.8448 0.4696 -0.2563
vn 0.4528 -0.8810 -0.1374
vn 0.9161 0.2890 -0.2779
vn 0.2790 -0.9565 -0.0846
vn 0.9524 0.0976 -0.2889
vn 0.0942 0.9951 -0.0286
vn 0.0942 -0.9951 -0.0286
vn 0.9524 -0.0976 -0.2889
vn 0.2790 0.9565 -0.0846
vn 0.4709 -0.8810 -0.0464
vn 0.9527 0.2890 -0.0938
vn 0.2902 -0.9565 -0.0286
vn 0.9904 0.0976 -0.0975
vn 0.0980 0.9951 -0.0097
vn 0.0980 -0.9951 -0.0097
vn 0.9904 -0.0976 -0.0975
vn 0.2902 0.9565 -0.0286
vn 0.9527 -0.2890 -0.0938
vn 0.4709 0.8810 -0.0464
vn 0.8786 -0.4696 -0.0865
vn 0.6332 0.7715 -0.0624
vn 0.7708 -0.6326 -0.0759
vn 0.7708 0.6326 -0.0759
vn 0.6332 -0.7715 -0.0624
vn 0.8786 0.4696 -0.0865
vn 0.4709 0.8810 0.0464
vn 0.8786 -0.4696 0.0865
vn 0.6332 0.7715 0.0624
vn 0.7708 -0.6326 0.0759
vn 0.7708 0.6326 0.0759
vn 0.6332 -0.7715 0.0624
vn 0.8786 0.4696 0.0865
vn 0.4709 -0.8810 0.0464
vn 0.9527 0.2890 0.0938
vn 0.2902 -0.9565 0.0286
vn 0.9904 0.0976 0.0975
vn 0.0980 0.9951 0.0097
vn 0.0980 -0.9951 0.0097
vn 0.9904 -0.0976 0.0975
vn 0.2902 0.9565 0.0286
vn 0.9527 -0.2890 0.0938
vn 0.9161 0.2890 0.2779
vn 0.2790 -0.9565 0.0846
vn 0.9524 0.0976 0.2889
vn 0.0942 0.9951 0.0286
vn 0.0942 -0.9951 0.0286
vn 0.9524 -0.0976 0.2889
vn 0.2790 0.9565 0.0846
vn 0.9161 -0.2890 0.2779
vn 0.4528 0.8810 0.1374
vn 0.8448 -0.4696 0.2563
vn 0.6088 0.7715 0.1847
vn 0.7412 -0.6326 0.2248
vn 0.7412 0.6326 0.2248
vn 0.6088 -0.7715 0.1847
vn 0.8448 0.4696 0.2563
vn 0.4528 -0.8810 0.1374
vn 0.7786 -0.4696 0.4162
vn 0.5611 0.7715 0.2999
vn 0.6831 -0.6326 0.3651
vn 0.6831 0.6326 0.3651
vn 0.5611 -0.7715 0.2999
vn 0.7786 0.4696 0.4162
vn 0.4173 -0.8810 0.2231
vn 0.8443 0.2890 0.4513
vn 0.2571 -0.9565 0.1374
vn 0.8777 0.0976 0.4691
vn 0.0869 0.9951 0.0464
vn 0.0869 -0.9951 0.0464
vn 0.8777 -0.0976 0.4691
vn 0.2571 0.9565 0.1374
vn 0.8443 -0.2890 0.4513
vn 0.4173 0.8810 0.2230
vn 0.2254 -0.9565 0.1850
vn 0.7693 0.0976 0.6314
vn 0.0761 0.9951 0.0625
vn 0.0761 -0.9951 0.0625
vn 0.7693 -0.0976 0.6314
vn 0.2254 0.9565 0.1850
vn 0.7400 -0.2890 0.6073
vn 0.3658 0.8810 0.3002
vn 0.6825 -0.4696 0.5601
vn 0.4918 0.7715 0.4036
vn 0.5987 -0.6326 0.4913
vn 0.5987 0.6326 0.4913
vn 0.4918 -0.7715 0.4036
vn 0.6825 0.4696 0.5601
vn 0.3658 -0.8810 0.3002
vn 0.7400 0.2890 0.6073
vn 0.4036 0.7715 0.4918
vn 0.4913 -0.6326 0.5987
vn 0.4913 0.6326 0.5987
vn 0.4036 -0.7715 0.4918
vn 0.5601 0.4696 0.6825
vn 0.3002 -0.8810 0.3658
vn 0.6073 0.2890 0.7400
vn 0.1850 -0.9565 0.2254
vn 0.6314 0.0976 0.7693
vn 0.0625 0.9951 0.0761
vn 0.0625 -0.9951 0.0761
vn 0.6314 -0.0976 0.7693
vn 0.1850 0.9565 0.2254
vn 0.6073 -0.2890 0.7400
vn 0.3002 0.8810 0.3658
vn 0.5601 -0.4696 0.6825
vn 0.4691 0.0976 0.8777
vn 0.0464 0.9951 0.0869
vn 0.0464 -0.9951 0.0869
vn 0.4691 -0.0976 0.8777
vn 0.1374 0.9565 0.2571
vn 0.4513 -0.2890 0.8443
vn 0.2230 0.8810 0.4173
vn 0.4162 -0.4696 0.7786
vn 0.2999 0.7715 0.5611
vn 0.3651 -0.6326 0.6831
vn 0.3651 0.6326 0.6831
vn 0.2999 -0.7715 0.5611
vn 0.4162 0.4696 0.7786
vn 0.2230 -0.8810 0.4173
vn 0.4513 0.2890 0.8443
vn 0.1374 -0.9565 0.2571
vn 0.2248 -0.6326 0.7412
vn 0.2248 0.6326 0.7412
vn 0.1847 -0.7715 0.6088
vn 0.2563 0.4696 0.8448
vn 0.1374 -0.8810 0.4528
vn 0.2779 0.2890 0.9161
vn 0.0846 -0.9565 0.2790
vn 0.2889 0.0976 0.9524
vn 0.0286 0.9951 0.0942
vn 0.0286 -0.9951 0.0942
vn 0.2889 -0.0976 0.9524
vn 0.0846 0.9565 0.2790
vn 0.2779 -0.2890 0.9161
vn 0.1374 0.8810 0.4528
vn 0.2563 -0.4696 0.8448
vn 0.1847 0.7715 0.6088
vn 0.0097 -0.9951 0.0980
vn 0.0975 -0.0976 0.9904
vn 0.0286 0.9565 0.2902
vn 0.0938 -0.2890 0.9527
vn 0.0464 0.8810 0.4709
vn 0.0865 -0.4696 0.8786
vn 0.0624 0.7715 0.6332
vn 0.0759 -0.6326 0.7708
vn 0.0759 0.6326 0.7708
vn 0.0624 -0.7715 0.6332
vn 0.0865 0.4696 0.8786
vn 0.0464 -0.8810 0.4709
vn 0.0938 0.2890 0.9527
vn 0.0286 -0.9565 0.2902
vn 0.0975 0.0976 0.9904
vn 0.0097 0.9951 0.0980
vn -0.0624 -0.7715 0.6332
vn -0.0865 0.4696 0.8786
vn -0.0464 -0.8810 0.4709
vn -0.0938 0.2890 0.9527
vn -0.0286 -0.9565 0.2902
vn -0.0975 0.0976 0.9904
vn -0.0097 0.9951 0.0980
vn -0.0097 -0.9951 0.0980
vn -0.0975 -0.0976 0.9904
vn -0.0286 0.9565 0.2902
vn -0.0938 -0.2890 0.9527
vn -0.0464 0.8810 0.4709
vn -0.0865 -0.4696 0.8786
vn -0.0624 0.7715 0.6332
vn -0.0759 -0.6326 0.7708
vn -0.0759 0.6326 0.7708
vn -0.0846 0.9565 0.2790
vn -0.2779 -0.2890 0.9161
vn -0.1374 0.8810 0.4528
vn -0.2563 -0.4696 0.8448
vn -0.1847 0.7715 0.6088
vn -0.2248 -0.6326 0.7412
vn -0.2248 0.6326 0.7412
vn -0.1847 -0.7715 0.6088
vn -0.2563 0.4696 0.8448
vn -0.1374 -0.8810 0.4528
vn -0.2779 0.2890 0.9161
vn -0.0846 -0.9565 0.2790
vn -0.2889 0.0976 0.9524
vn -0.0286 0.9951 0.0942
vn -0.0286 -0.9951 0.0942
vn -0.2889 -0.0976 0.9524
vn -0.4162 0.4696 0.7786
vn -0.2231 -0.8810 0.4173
vn -0.4513 0.2890 0.8443
vn -0.1374 -0.9565 0.2571
vn -0.4691 0.0976 0.8777
vn -0.0464 0.9951 0.0869
vn -0.0464 -0.9951 0.0869
vn -0.4691 -0.0976 0.8777
vn -0.1374 0.9565 0.2571
vn -0.4513 -0.2890 0.8443
vn -0.2230 0.8810 0.4173
vn -0.4162 -0.4696 0.7786
vn -0.2999 0.7715 0.5611
vn -0.3651 -0.6326 0.6831
vn -0.3651 0.6326 0.6831
vn -0.2999 -0.7715 0.5611
vn -0.6073 -0.2890 0.7400
vn -0.3002 0.8810 0.3658
vn -0.5601 -0.4696 0.6825
vn -0.4036 0.7715 0.4918
vn -0.4913 -0.6326 0.5987
vn -0.4913 0.6326 0.5987
vn -0.4036 -0.7715 0.4918
vn -0.5601 0.4696 0.6825
vn -0.3002 -0.8810 0.3658
vn -0.6073 0.2890 0.7400
vn -0.1850 -0.9565 0.2254
vn -0.6314 0.0976 0.7693
vn -0.0625 0.9951 0.0761
vn -0.0625 -0.9951 0.0761
vn -0.6314 -0.0976 0.7693
vn -0.1850 0.9565 0.2254
vn -0.3658 -0.8810 0.3002
vn -0.7400 0.2890 0.6073
vn -0.2254 -0.9565 0.1850
vn -0.7693 0.0976 0.6314
vn -0.0761 0.9951 0.0625
vn -0.0761 -0.9951 0.0625
vn -0.7693 -0.0976 0.6314
vn -0.2254 0.9565 0.1850
vn -0.7400 -0.2890 0.6073
vn -0.3658 0.8810 0.3002
vn -0.6825 -0.4696 0.5601
vn -0.4918 0.7715 0.4036
vn -0.5987 -0.6326 0.4913
vn -0.5987 0.6326 0.4913
vn -0.4918 -0.7715 0.4036
vn -0.6825 0.4696 0.5601
vn -0.4173 0.8810 0.2230
vn -0.7786 -0.4696 0.4162
vn -0.5611 0.7715 0.2999
vn -0.6831 -0.6326 0.3651
vn -0.6831 0.6326 0.3651
vn -0.5611 -0.7715 0.2999
vn -0.7786 0.4696 0.4162
vn -0.4173 -0.8810 0.2230
vn -0.8443 0.2890 0.4513
vn -0.2571 -0.9565 0.1374
vn -0.8777 0.0976 0.4691
vn -0.0869 0.9951 0.0464
vn -0.0869 -0.9951 0.0464
vn -0.8777 -0.0976 0.4691
vn -0.2571 0.9565 0.1374
vn -0.8443 -0.2890 0.4513
vn -0.9161 0.2890 0.2779
vn -0.2790 -0.9565 0.0846
vn -0.9524 0.0976 0.2889
vn -0.0942 0.9951 0.0286
vn -0.0942 -0.9951 0.0286
vn -0.9524 -0.0976 0.2889
vn -0.2790 0.9565 0.0846
vn -0.9161 -0.2890 0.2779
vn -0.4528 0.8810 0.1374
vn -0.8448 -0.4696 0.2563
vn -0.6088 0.7715 0.1847
vn -0.7412 -0.6326 0.2248
vn -0.7412 0.6326 0.2248
vn -0.6088 -0.7715 0.1847
vn -0.8448 0.4696 0.2563
vn -0.4528 -0.8810 0.1374
vn -0.8786 -0.4696 0.0865
vn -0.6332 0.7715 0.0624
vn -0.7708 -0.6326 0.0759
vn -0.7708 0.6326 0.0759
vn -0.6332 -0.7715 0.0624
vn -0.8786 0.4696 0.0865
vn -0.4709 -0.8810 0.0464
vn -0.9527 0.2890 0.0938
vn -0.2902 -0.9565 0.0286
vn -0.9904 0.0976 0.0975
vn -0.0980 0.9951 0.0097
vn -0.0980 -0.9951 0.0097
vn -0.9904 -0.0976 0.0975
vn -0.2902 0.9565 0.0286
vn -0.9527 -0.2890 0.0938
vn -0.4709 0.8810 0.0464
vn -0.2902 -0.9565 -0.0286
vn -0.9904 0.0976 -0.0976
vn -0.0980 0.9951 -0.0097
vn -0.0980 -0.9951 -0.0097
vn -0.9904 -0.0976 -0.0976
vn -0.2902 0.9565 -0.0286
vn -0.9527 -0.2890 -0.0938
vn -0.4709 0.8810 -0.0464
vn -0.8786 -0.4696 -0.0865
vn -0.6332 0.7715 -0.0624
vn -0.7708 -0.6326 -0.0759
vn -0.7708 0.6326 -0.0759
vn -0.6332 -0.7715 -0.0624
vn -0.8786 0.4696 -0.0865
vn -0.4709 -0.8810 -0.0464
vn -0.9527 0.2890 -0.0938
vn -0.7412 -0.6326 -0.2248
vn -0.7412 0.6326 -0.2248
vn -0.6088 -0.7715 -0.1847
vn -0.8448 0.4696 -0.2563
vn -0.4528 -0.8810 -0.1374
vn -0.9161 0.2890 -0.2779
vn -0.2790 -0.9565 -0.0846
vn -0.9524 0.0976 -0.2889
vn -0.0942 0.9951 -0.0286
vn -0.0942 -0.9951 -0.0286
vn -0.9524 -0.0976 -0.2889
vn -0.2790 0.9565 -0.0846
vn -0.9161 -0.2890 -0.2779
vn -0.4528 0.8810 -0.1374
vn -0.8448 -0.4696 -0.2563
vn -0.6088 0.7715 -0.1847
vn -0.0869 0.9951 -0.0464
vn -0.0869 -0.9951 -0.0464
vn -0.8777 -0.0976 -0.4691
vn -0.2571 0.9565 -0.1374
vn -0.8443 -0.2890 -0.4513
vn -0.4173 0.8810 -0.2230
vn -0.7786 -0.4696 -0.4162
vn -0.5611 0.7715 -0.2999
vn -0.6831 -0.6326 -0.3651
vn -0.6831 0.6326 -0.3651
vn -0.5611 -0.7715 -0.2999
vn -0.7786 0.4696 -0.4162
vn -0.4173 -0.8810 -0.2231
vn -0.8443 0.2890 -0.4513
vn -0.2571 -0.9565 -0.1374
vn -0.8777 0.0976 -0.4691
vn -0.5987 0.6326 -0.4913
vn -0.4918 -0.7715 -0.4036
vn -0.6825 0.4696 -0.5601
vn -0.3658 -0.8810 -0.3002
vn -0.7400 0.2890 -0.6073
vn -0.2254 -0.9565 -0.1850
vn -0.7693 0.0976 -0.6314
vn -0.0761 0.9951 -0.0625
vn -0.0761 -0.9951 -0.0625
vn -0.7693 -0.0976 -0.6314
vn -0.2254 0.9565 -0.1850
vn -0.7400 -0.2890 -0.6073
vn -0.3658 0.8810 -0.3002
vn -0.6825 -0.4696 -0.5601
vn -0.4918 0.7715 -0.4036
vn -0.5987 -0.6326 -0.4913
vn -0.6314 -0.0976 -0.7693
vn -0.1850 0.9565 -0.2254
vn -0.6073 -0.2890 -0.7400
vn -0.3002 0.8810 -0.3658
vn -0.5601 -0.4696 -0.6825
vn -0.4036 0.7715 -0.4918
vn -0.4913 -0.6326 -0.5987
vn -0.4913 0.6326 -0.5987
vn -0.4036 -0.7715 -0.4918
vn -0.5601 0.4696 -0.6825
vn -0.3002 -0.8810 -0.3658
vn -0.6073 0.2890 -0.7400
vn -0.1850 -0.9565 -0.2254
vn -0.6314 0.0976 -0.7693
vn -0.0625 0.9951 -0.0761
vn -0.0625 -0.9951 -0.0761
vn -0.2999 -0.7715 -0.5611
vn -0.4162 0.4696 -0.7786
vn -0.2230 -0.8810 -0.4173
vn -0.4513 0.2890 -0.8443
vn -0.1374 -0.9565 -0.2571
vn -0.4691 0.0976 -0.8777
vn -0.0464 0.9951 -0.0869
vn -0.0464 -0.9951 -0.0869
vn -0.4691 -0.0976 -0.8777
vn -0.1374 0.9565 -0.2571
vn -0.4513 -0.2890 -0.8443
vn -0.2230 0.8810 -0.4173
vn -0.4162 -0.4696 -0.7786
vn -0.2999 0.7715 -0.5611
vn -0.3651 -0.6326 -0.6831
vn -0.3651 0.6326 -0.6831
vn -0.0846 0.9565 -0.2790
vn -0.2779 -0.2890 -0.9161
vn -0.1374 0.8810 -0.4528
vn -0.2563 -0.4696 -0.8448
vn -0.1847 0.7715 -0.6088
vn -0.2248 -0.6326 -0.7412
vn -0.2248 0.6326 -0.7412
vn -0.1847 -0.7715 -0.6088
vn -0.2563 0.4696 -0.8448
vn -0.1374 -0.8810 -0.4528
vn -0.2779 0.2890 -0.9161
vn -0.0846 -0.9565 -0.2790
vn -0.2889 0.0976 -0.9524
vn -0.0286 0.9951 -0.0942
vn -0.0286 -0.9951 -0.0942
vn -0.2889 -0.0976 -0.9524
vn -0.0865 0.4696 -0.8786
vn -0.0464 -0.8810 -0.4709
vn -0.0938 0.2890 -0.9527
vn -0.0286 -0.9565 -0.2902
vn -0.0976 0.0976 -0.9904
vn -0.0097 0.9951 -0.0980
vn -0.0097 -0.9951 -0.0980
vn -0.0976 -0.0976 -0.9904
vn -0.0286 0.9565 -0.2902
vn -0.0938 -0.2890 -0.9527
vn -0.0464 0.8810 -0.4709
vn -0.0865 -0.4696 -0.8786
vn -0.0624 0.7715 -0.6332
vn -0.0759 -0.6326 -0.7708
vn -0.0759 0.6326 -0.7708
vn -0.0624 -0.7715 -0.6332
usemtl None
s off
f 10/1/1 480/2/1 22/3/1 23/4/1
f 6/5/2 5/6/2 15/7/2 16/8/2
f 481/9/3 10/1/3 23/4/3 24/10/3
f 7/11/4 6/5/4 16/8/4 17/12/4
f 482/13/5 481/9/5 24/10/5 25/14/5
f 8/15/6 7/11/6 17/12/6 18/16/6
f 1/17/7 297/18/7 11/19/7
f 206/20/8 482/21/8 25/22/8
f 9/23/9 8/15/9 18/16/9 19/24/9
f 2/25/10 1/17/10 11/19/10 12/26/10
f 478/27/11 9/23/11 19/24/11 20/28/11
f 3/29/12 2/25/12 12/26/12 13/30/12
f 479/31/13 478/27/13 20/28/13 21/32/13
f 4/33/14 3/29/14 13/30/14 14/34/14
f 480/2/15 479/31/15 21/32/15 22/3/15
f 5/6/16 4/33/16 14/34/16 15/7/16
f 22/3/17 21/32/17 36/35/17 37/36/17
f 15/7/18 14/34/18 29/37/18 30/38/18
f 23/4/19 22/3/19 37/36/19 38/39/19
f 16/8/20 15/7/20 30/38/20 31/40/20
f 24/10/21 23/4/21 38/39/21 39/41/21
f 17/12/22 16/8/22 31/40/22 32/42/22
f 25/14/23 24/10/23 39/41/23 40/43/23
f 18/16/24 17/12/24 32/42/24 33/44/24
f 11/19/25 297/18/25 26/45/25
f 206/20/26 25/22/26 40/46/26
f 19/24/27 18/16/27 33/44/27 34/47/27
f 12/26/28 11/19/28 26/45/28 27/48/28
f 20/28/29 19/24/29 34/47/29 35/49/29
f 13/30/30 12/26/30 27/48/30 28/50/30
f 21/32/31 20/28/31 35/49/31 36/35/31
f 14/34/32 13/30/32 28/50/32 29/37/32
f 26/45/33 297/18/33 41/51/33
f 206/20/34 40/46/34 55/52/34
f 34/47/35 33/44/35 48/53/35 49/54/35
f 27/48/36 26/45/36 41/51/36 42/55/36
f 35/49/37 34/47/37 49/54/37 50/56/37
f 28/50/38 27/48/38 42/55/38 43/57/38
f 36/35/39 35/49/39 50/56/39 51/58/39
f 29/37/40 28/50/40 43/57/40 44/59/40
f 37/36/41 36/35/41 51/58/41 52/60/41
f 30/38/42 29/37/42 44/59/42 45/61/42
f 38/39/43 37/36/43 52/60/43 53/62/43
f 31/40/44 30/38/44 45/61/44 46/63/44
f 39/41/45 38/39/45 53/62/45 54/64/45
f 32/42/46 31/40/46 46/63/46 47/65/46
f 40/43/47 39/41/47 54/64/47 55/66/47
f 33/44/48 32/42/48 47/65/48 48/53/48
f 45/61/49 44/59/49 59/67/49 60/68/49
f 53/62/50 52/60/50 67/69/50 68/70/50
f 46/63/51 45/61/51 60/68/51 61/71/51
f 54/64/52 53/62/52 68/70/52 69/72/52
f 47/65/53 46/63/53 61/71/53 62/73/53
f 55/66/54 54/64/54 69/72/54 70/74/54
f 48/53/55 47/65/55 62/73/55 63/75/55
f 41/51/56 297/18/56 56/76/56
f 206/20/57 55/52/57 70/77/57
f 49/54/58 48/53/58 63/75/58 64/78/58
f 42/55/59 41/51/59 56/76/59 57/79/59
f 50/56/60 49/54/60 64/78/60 65/80/60
f 43/57/61 42/55/61 57/79/61 58/81/61
f 51/58/62 50/56/62 65/80/62 66/82/62
f 44/59/63 43/57/63 58/81/63 59/67/63
f 52/60/64 51/58/64 66/82/64 67/69/64
f 64/78/65 63/75/65 78/83/65 79/84/65
f 57/79/66 56/76/66 71/85/66 72/86/66
f 65/80/67 64/78/67 79/84/67 80/87/67
f 58/81/68 57/79/68 72/86/68 73/88/68
f 66/82/69 65/80/69 80/87/69 81/89/69
f 59/67/70 58/81/70 73/88/70 74/90/70
f 67/69/71 66/82/71 81/89/71 82/91/71
f 60/68/72 59/67/72 74/90/72 75/92/72
f 68/70/73 67/69/73 82/91/73 83/93/73
f 61/71/74 60/68/74 75/92/74 76/94/74
f 69/72/75 68/70/75 83/93/75 84/95/75
f 62/73/76 61/71/76 76/94/76 77/96/76
f 70/74/77 69/72/77 84/95/77 85/97/77
f 63/75/78 62/73/78 77/96/78 78/83/78
f 56/76/79 297/18/79 71/85/79
f 206/20/80 70/77/80 85/98/80
f 83/93/81 82/91/81 97/99/81 98/100/81
f 76/94/82 75/92/82 90/101/82 91/102/82
f 84/95/83 83/93/83 98/100/83 99/103/83
f 77/96/84 76/94/84 91/102/84 92/104/84
f 85/97/85 84/95/85 99/103/85 100/105/85
f 78/83/86 77/96/86 92/104/86 93/106/86
f 71/85/87 297/18/87 86/107/87
f 206/20/88 85/98/88 100/108/88
f 79/84/89 78/83/89 93/106/89 94/109/89
f 72/86/90 71/85/90 86/107/90 87/110/90
f 80/87/91 79/84/91 94/109/91 95/111/91
f 73/88/92 72/86/92 87/110/92 88/112/92
f 81/89/93 80/87/93 95/111/93 96/113/93
f 74/90/94 73/88/94 88/112/94 89/114/94
f 82/91/95 81/89/95 96/113/95 97/99/95
f 75/92/96 74/90/96 89/114/96 90/101/96
f 95/111/97 94/109/97 109/115/97 110/116/97
f 88/112/98 87/110/98 102/117/98 103/118/98
f 96/113/99 95/111/99 110/116/99 111/119/99
f 89/114/100 88/112/100 103/118/100 104/120/100
f 97/99/101 96/113/101 111/119/101 112/121/101
f 90/101/102 89/114/102 104/120/102 105/122/102
f 98/100/103 97/99/103 112/121/103 113/123/103
f 91/102/104 90/101/104 105/122/104 106/124/104
f 99/103/105 98/100/105 113/123/105 114/125/105
f 92/104/106 91/102/106 106/124/106 107/126/106
f 100/105/107 99/103/107 114/125/107 115/127/107
f 93/106/108 92/104/108 107/126/108 108/128/108
f 86/107/109 297/18/109 101/129/109
f 206/20/110 100/108/110 115/130/110
f 94/109/111 93/106/111 108/128/111 109/115/111
f 87/110/112 86/107/112 101/129/112 102/117/112
f 114/125/113 113/123/113 128/131/113 129/132/113
f 107/126/114 106/124/114 121/133/114 122/134/114
f 115/127/115 114/125/115 129/132/115 130/135/115
f 108/128/116 107/126/116 122/134/116 123/136/116
f 101/129/117 297/18/117 116/137/117
f 206/20/118 115/130/118 130/138/118
f 109/115/119 108/128/119 123/136/119 124/139/119
f 102/117/120 101/129/120 116/137/120 117/140/120
f 110/116/121 109/115/121 124/139/121 125/141/121
f 103/118/122 102/117/122 117/140/122 118/142/122
f 111/119/123 110/116/123 125/141/123 126/143/123
f 104/120/124 103/118/124 118/142/124 119/144/124
f 112/121/125 111/119/125 126/143/125 127/145/125
f 105/122/126 104/120/126 119/144/126 120/146/126
f 113/123/127 112/121/127 127/145/127 128/131/127
f 106/124/128 105/122/128 120/146/128 121/133/128
f 118/142/129 117/140/129 132/147/129 133/148/129
f 126/143/130 125/141/130 140/149/130 141/150/130
f 119/144/131 118/142/131 133/148/131 134/151/131
f 127/145/132 126/143/132 141/150/132 142/152/132
f 120/146/133 119/144/133 134/151/133 135/153/133
f 128/131/134 127/145/134 142/152/134 143/154/134
f 121/133/135 120/146/135 135/153/135 136/155/135
f 129/132/136 128/131/136 143/154/136 144/156/136
f 122/134/137 121/133/137 136/155/137 137/157/137
f 130/135/138 129/132/138 144/156/138 145/158/138
f 123/136/139 122/134/139 137/157/139 138/159/139
f 116/137/140 297/18/140 131/160/140
f 206/20/141 130/138/141 145/161/141
f 124/139/142 123/136/142 138/159/142 139/162/142
f 117/140/143 116/137/143 131/160/143 132/147/143
f 125/141/144 124/139/144 139/162/144 140/149/144
f 137/157/145 136/155/145 151/163/145 152/164/145
f 145/158/146 144/156/146 159/165/146 160/166/146
f 138/159/147 137/157/147 152/164/147 153/167/147
f 131/160/148 297/18/148 146/168/148
f 206/20/149 145/161/149 160/169/149
f 139/162/150 138/159/150 153/167/150 154/170/150
f 132/147/151 131/160/151 146/168/151 147/171/151
f 140/149/152 139/162/152 154/170/152 155/172/152
f 133/148/153 132/147/153 147/171/153 148/173/153
f 141/150/154 140/149/154 155/172/154 156/174/154
f 134/151/155 133/148/155 148/173/155 149/175/155
f 142/152/156 141/150/156 156/174/156 157/176/156
f 135/153/157 134/151/157 149/175/157 150/177/157
f 143/154/158 142/152/158 157/176/158 158/178/158
f 136/155/159 135/153/159 150/177/159 151/163/159
f 144/156/160 143/154/160 158/178/160 159/165/160
f 156/174/161 155/172/161 170/179/161 171/180/161
f 149/175/162 148/173/162 163/181/162 164/182/162
f 157/176/163 156/174/163 171/180/163 172/183/163
f 150/177/164 149/175/164 164/182/164 165/184/164
f 158/178/165 157/176/165 172/183/165 173/185/165
f 151/163/166 150/177/166 165/184/166 166/186/166
f 159/165/167 158/178/167 173/185/167 174/187/167
f 152/164/168 151/163/168 166/186/168 167/188/168
f 160/166/169 159/165/169 174/187/169 175/189/169
f 153/167/170 152/164/170 167/188/170 168/190/170
f 146/168/171 297/18/171 161/191/171
f 206/20/172 160/169/172 175/192/172
f 154/170/173 153/167/173 168/190/173 169/193/173
f 147/171/174 146/168/174 161/191/174 162/194/174
f 155/172/175 154/170/175 169/193/175 170/179/175
f 148/173/176 147/171/176 162/194/176 163/181/176
f 175/189/177 174/187/177 189/195/177 190/196/177
f 168/190/178 167/188/178 182/197/178 183/198/178
f 161/191/179 297/18/179 176/199/179
f 206/20/180 175/192/180 190/200/180
f 169/193/181 168/190/181 183/198/181 184/201/181
f 162/194/182 161/191/182 176/199/182 177/202/182
f 170/179/183 169/193/183 184/201/183 185/203/183
f 163/181/184 162/194/184 177/202/184 178/204/184
f 171/180/185 170/179/185 185/203/185 186/205/185
f 164/182/186 163/181/186 178/204/186 179/206/186
f 172/183/187 171/180/187 186/205/187 187/207/187
f 165/184/188 164/182/188 179/206/188 180/208/188
f 173/185/189 172/183/189 187/207/189 188/209/189
f 166/186/190 165/184/190 180/208/190 181/210/190
f 174/187/191 173/185/191 188/209/191 189/195/191
f 167/188/192 166/186/192 181/210/192 182/197/192
f 179/206/193 178/204/193 193/211/193 194/212/193
f 187/207/194 186/205/194 201/213/194 202/214/194
f 180/208/195 179/206/195 194/212/195 195/215/195
f 188/209/196 187/207/196 202/214/196 203/216/196
f 181/210/197 180/208/197 195/215/197 196/217/197
f 189/195/198 188/209/198 203/216/198 204/218/198
f 182/197/199 181/210/199 196/217/199 197/219/199
f 190/196/200 189/195/200 204/218/200 205/220/200
f 183/198/201 182/197/201 197/219/201 198/221/201
f 176/199/202 297/18/202 191/222/202
f 206/20/203 190/200/203 205/223/203
f 184/201/204 183/198/204 198/221/204 199/224/204
f 177/202/205 176/199/205 191/222/205 192/225/205
f 185/203/206 184/201/206 199/224/206 200/226/206
f 178/204/207 177/202/207 192/225/207 193/211/207
f 186/205/208 185/203/208 200/226/208 201/213/208
f 198/227/209 197/228/209 213/229/209 214/230/209
f 191/222/210 297/18/210 207/231/210
f 206/20/211 205/223/211 221/232/211
f 199/233/212 198/227/212 214/230/212 215/234/212
f 192/235/213 191/236/213 207/237/213 208/238/213
f 200/239/214 199/233/214 215/234/214 216/240/214
f 193/241/215 192/235/215 208/238/215 209/242/215
f 201/243/216 200/239/216 216/240/216 217/244/216
f 194/245/217 193/241/217 209/242/217 210/246/217
f 202/247/218 201/243/218 217/244/218 218/248/218
f 195/249/219 194/245/219 210/246/219 211/250/219
f 203/251/220 202/247/220 218/248/220 219/252/220
f 196/253/221 195/249/221 211/250/221 212/254/221
f 204/255/222 203/251/222 219/252/222 220/256/222
f 197/228/223 196/253/223 212/254/223 213/229/223
f 205/223/224 204/255/224 220/256/224 221/232/224
f 218/248/225 217/244/225 232/257/225 233/258/225
f 211/250/226 210/246/226 225/259/226 226/260/226
f 219/252/227 218/248/227 233/258/227 234/261/227
f 212/254/228 211/250/228 226/260/228 227/262/228
f 220/256/229 219/252/229 234/261/229 235/263/229
f 213/229/230 212/254/230 227/262/230 228/264/230
f 221/232/231 220/256/231 235/263/231 236/265/231
f 214/230/232 213/229/232 228/264/232 229/266/232
f 207/237/233 297/267/233 222/268/233
f 206/20/234 221/232/234 236/265/234
f 215/234/235 214/230/235 229/266/235 230/269/235
f 208/238/236 207/237/236 222/268/236 223/270/236
f 216/240/237 215/234/237 230/269/237 231/271/237
f 209/242/238 208/238/238 223/270/238 224/272/238
f 217/244/239 216/240/239 231/271/239 232/257/239
f 210/246/240 209/242/240 224/272/240 225/259/240
f 206/20/241 236/265/241 251/273/241
f 230/269/242 229/266/242 244/274/242 245/275/242
f 223/270/243 222/268/243 237/276/243 238/277/243
f 231/271/244 230/269/244 245/275/244 246/278/244
f 224/272/245 223/270/245 238/277/245 239/279/245
f 232/257/246 231/271/246 246/278/246 247/280/246
f 225/259/247 224/272/247 239/279/247 240/281/247
f 233/258/248 232/257/248 247/280/248 248/282/248
f 226/260/249 225/259/249 240/281/249 241/283/249
f 234/261/250 233/258/250 248/282/250 249/284/250
f 227/262/251 226/260/251 241/283/251 242/285/251
f 235/263/252 234/261/252 249/284/252 250/286/252
f 228/264/253 227/262/253 242/285/253 243/287/253
f 236/265/254 235/263/254 250/286/254 251/273/254
f 229/266/255 228/264/255 243/287/255 244/274/255
f 222/268/256 297/267/256 237/276/256
f 249/284/257 248/282/257 263/288/257 264/289/257
f 242/285/258 241/283/258 256/290/258 257/291/258
f 250/286/259 249/284/259 264/289/259 265/292/259
f 243/287/260 242/285/260 257/291/260 258/293/260
f 251/273/261 250/286/261 265/292/261 266/294/261
f 244/274/262 243/287/262 258/293/262 259/295/262
f 237/276/263 297/18/263 252/296/263
f 206/20/264 251/273/264 266/294/264
f 245/275/265 244/274/265 259/295/265 260/297/265
f 238/277/266 237/276/266 252/296/266 253/298/266
f 246/278/267 245/275/267 260/297/267 261/299/267
f 239/279/268 238/277/268 253/298/268 254/300/268
f 247/280/269 246/278/269 261/299/269 262/301/269
f 240/281/270 239/279/270 254/300/270 255/302/270
f 248/282/271 247/280/271 262/301/271 263/288/271
f 241/283/272 240/281/272 255/302/272 256/290/272
f 253/298/273 252/296/273 267/303/273 268/304/273
f 261/299/274 260/297/274 275/305/274 276/306/274
f 254/300/275 253/298/275 268/304/275 269/307/275
f 262/301/276 261/299/276 276/306/276 277/308/276
f 255/302/277 254/300/277 269/307/277 270/309/277
f 263/288/278 262/301/278 277/308/278 278/310/278
f 256/290/279 255/302/279 270/309/279 271/311/279
f 264/289/280 263/288/280 278/310/280 279/312/280
f 257/291/281 256/290/281 271/311/281 272/313/281
f 265/292/282 264/289/282 279/312/282 280/314/282
f 258/293/283 257/291/283 272/313/283 273/315/283
f 266/294/284 265/292/284 280/314/284 281/316/284
f 259/295/285 258/293/285 273/315/285 274/317/285
f 252/296/286 297/18/286 267/303/286
f 206/20/287 266/294/287 281/316/287
f 260/297/288 259/295/288 274/317/288 275/305/288
f 272/313/289 271/311/289 286/318/289 287/319/289
f 280/314/290 279/312/290 294/320/290 295/321/290
f 273/315/291 272/313/291 287/319/291 288/322/291
f 281/316/292 280/314/292 295/321/292 296/323/292
f 274/317/293 273/315/293 288/322/293 289/324/293
f 267/303/294 297/18/294 282/325/294
f 206/20/295 281/316/295 296/323/295
f 275/305/296 274/317/296 289/324/296 290/326/296
f 268/304/297 267/303/297 282/325/297 283/327/297
f 276/306/298 275/305/298 290/326/298 291/328/298
f 269/307/299 268/304/299 283/327/299 284/329/299
f 277/308/300 276/306/300 291/328/300 292/330/300
f 270/309/301 269/307/301 284/329/301 285/331/301
f 278/310/302 277/308/302 292/330/302 293/332/302
f 271/311/303 270/309/303 285/331/303 286/318/303
f 279/312/304 278/310/304 293/332/304 294/320/304
f 291/328/305 290/326/305 306/333/305 307/334/305
f 284/329/306 283/327/306 299/335/306 300/336/306
f 292/330/307 291/328/307 307/334/307 308/337/307
f 285/331/308 284/329/308 300/336/308 301/338/308
f 293/332/309 292/330/309 308/337/309 309/339/309
f 286/318/310 285/331/310 301/338/310 302/340/310
f 294/320/311 293/332/311 309/339/311 310/341/311
f 287/319/312 286/318/312 302/340/312 303/342/312
f 295/321/313 294/320/313 310/341/313 311/343/313
f 288/322/314 287/319/314 303/342/314 304/344/314
f 296/323/315 295/321/315 311/343/315 312/345/315
f 289/324/316 288/322/316 304/344/316 305/346/316
f 282/325/317 297/18/317 298/347/317
f 206/20/318 296/323/318 312/345/318
f 290/326/319 289/324/319 305/346/319 306/333/319
f 283/327/320 282/325/320 298/347/320 299/335/320
f 311/343/321 310/341/321 325/348/321 326/349/321
f 304/344/322 303/342/322 318/350/322 319/351/322
f 312/345/323 311/343/323 326/349/323 327/352/323
f 305/346/324 304/344/324 319/351/324 320/353/324
f 298/347/325 297/18/325 313/354/325
f 206/20/326 312/345/326 327/352/326
f 306/333/327 305/346/327 320/353/327 321/355/327
f 299/335/328 298/347/328 313/354/328 314/356/328
f 307/334/329 306/333/329 321/355/329 322/357/329
f 300/336/330 299/335/330 314/356/330 315/358/330
f 308/337/331 307/334/331 322/357/331 323/359/331
f 301/338/332 300/336/332 315/358/332 316/360/332
f 309/339/333 308/337/333 323/359/333 324/361/333
f 302/340/334 301/338/334 316/360/334 317/362/334
f 310/341/335 309/339/335 324/361/335 325/348/335
f 303/342/336 302/340/336 317/362/336 318/350/336
f 315/358/337 314/356/337 329/363/337 330/364/337
f 323/359/338 322/357/338 337/365/338 338/366/338
f 316/360/339 315/358/339 330/364/339 331/367/339
f 324/361/340 323/359/340 338/366/340 339/368/340
f 317/362/341 316/360/341 331/367/341 332/369/341
f 325/348/342 324/361/342 339/368/342 340/370/342
f 318/350/343 317/362/343 332/369/343 333/371/343
f 326/349/344 325/348/344 340/370/344 341/372/344
f 319/351/345 318/350/345 333/371/345 334/373/345
f 327/352/346 326/349/346 341/372/346 342/374/346
f 320/353/347 319/351/347 334/373/347 335/375/347
f 313/354/348 297/18/348 328/376/348
f 206/20/349 327/352/349 342/374/349
f 321/355/350 320/353/350 335/375/350 336/377/350
f 314/356/351 313/354/351 328/376/351 329/363/351
f 322/357/352 321/355/352 336/377/352 337/365/352
f 334/373/353 333/371/353 348/378/353 349/379/353
f 342/374/354 341/372/354 356/380/354 357/381/354
f 335/375/355 334/373/355 349/379/355 350/382/355
f 328/376/356 297/18/356 343/383/356
f 206/20/357 342/374/357 357/381/357
f 336/377/358 335/375/358 350/382/358 351/384/358
f 329/363/359 328/376/359 343/383/359 344/385/359
f 337/365/360 336/377/360 351/384/360 352/386/360
f 330/364/361 329/363/361 344/385/361 345/387/361
f 338/366/362 337/365/362 352/386/362 353/388/362
f 331/367/363 330/364/363 345/387/363 346/389/363
f 339/368/364 338/366/364 353/388/364 354/390/364
f 332/369/365 331/367/365 346/389/365 347/391/365
f 340/370/366 339/368/366 354/390/366 355/392/366
f 333/371/367 332/369/367 347/391/367 348/378/367
f 341/372/368 340/370/368 355/392/368 356/380/368
f 353/388/369 352/386/369 367/393/369 368/394/369
f 346/389/370 345/387/370 360/395/370 361/396/370
f 354/390/371 353/388/371 368/394/371 369/397/371
f 347/391/372 346/389/372 361/396/372 362/398/372
f 355/392/373 354/390/373 369/397/373 370/399/373
f 348/378/374 347/391/374 362/398/374 363/400/374
f 356/380/375 355/392/375 370/399/375 371/401/375
f 349/379/376 348/378/376 363/400/376 364/402/376
f 357/381/377 356/380/377 371/401/377 372/403/377
f 350/382/378 349/379/378 364/402/378 365/404/378
f 343/383/379 297/18/379 358/405/379
f 206/20/380 357/381/380 372/403/380
f 351/384/381 350/382/381 365/404/381 366/406/381
f 344/385/382 343/383/382 358/405/382 359/407/382
f 352/386/383 351/384/383 366/406/383 367/393/383
f 345/387/384 344/385/384 359/407/384 360/395/384
f 372/403/385 371/401/385 386/408/385 387/409/385
f 365/404/386 364/402/386 379/410/386 380/411/386
f 358/405/387 297/18/387 373/412/387
f 206/20/388 372/403/388 387/409/388
f 366/406/389 365/404/389 380/411/389 381/413/389
f 359/407/390 358/405/390 373/412/390 374/414/390
f 367/393/391 366/406/391 381/413/391 382/415/391
f 360/395/392 359/407/392 374/414/392 375/416/392
f 368/394/393 367/393/393 382/415/393 383/417/393
f 361/396/394 360/395/394 375/416/394 376/418/394
f 369/397/395 368/394/395 383/417/395 384/419/395
f 362/398/396 361/396/396 376/418/396 377/420/396
f 370/399/397 369/397/397 384/419/397 385/421/397
f 363/400/398 362/398/398 377/420/398 378/422/398
f 371/401/399 370/399/399 385/421/399 386/408/399
f 364/402/400 363/400/400 378/422/400 379/410/400
f 384/419/401 383/417/401 398/423/401 399/424/401
f 377/420/402 376/418/402 391/425/402 392/426/402
f 385/421/403 384/419/403 399/424/403 400/427/403
f 378/422/404 377/420/404 392/426/404 393/428/404
f 386/408/405 385/421/405 400/427/405 401/429/405
f 379/410/406 378/422/406 393/428/406 394/430/406
f 387/409/407 386/408/407 401/429/407 402/431/407
f 380/411/408 379/410/408 394/430/408 395/432/408
f 373/412/409 297/18/409 388/433/409
f 206/20/410 387/409/410 402/431/410
f 381/413/411 380/411/411 395/432/411 396/434/411
f 374/414/412 373/412/412 388/433/412 389/435/412
f 382/415/413 381/413/413 396/434/413 397/436/413
f 375/416/414 374/414/414 389/435/414 390/437/414
f 383/417/415 382/415/415 397/436/415 398/423/415
f 376/418/416 375/416/416 390/437/416 391/425/416
f 388/433/417 297/18/417 403/438/417
f 206/20/418 402/431/418 417/439/418
f 396/434/419 395/432/419 410/440/419 411/441/419
f 389/435/420 388/433/420 403/438/420 404/442/420
f 397/436/421 396/434/421 411/441/421 412/443/421
f 390/437/422 389/435/422 404/442/422 405/444/422
f 398/423/423 397/436/423 412/443/423 413/445/423
f 391/425/424 390/437/424 405/444/424 406/446/424
f 399/424/425 398/423/425 413/445/425 414/447/425
f 392/426/426 391/425/426 406/446/426 407/448/426
f 400/427/427 399/424/427 414/447/427 415/449/427
f 393/428/428 392/426/428 407/448/428 408/450/428
f 401/429/429 400/427/429 415/449/429 416/451/429
f 394/430/430 393/428/430 408/450/430 409/452/430
f 402/431/431 401/429/431 416/451/431 417/439/431
f 395/432/432 394/430/432 409/452/432 410/440/432
f 407/448/433 406/446/433 421/453/433 422/454/433
f 415/449/434 414/447/434 429/455/434 430/456/434
f 408/450/435 407/448/435 422/454/435 423/457/435
f 416/451/436 415/449/436 430/456/436 431/458/436
f 409/452/437 408/450/437 423/457/437 424/459/437
f 417/439/438 416/451/438 431/458/438 432/460/438
f 410/440/439 409/452/439 424/459/439 425/461/439
f 403/438/440 297/18/440 418/462/440
f 206/20/441 417/439/441 432/460/441
f 411/441/442 410/440/442 425/461/442 426/463/442
f 404/442/443 403/438/443 418/462/443 419/464/443
f 412/443/444 411/441/444 426/463/444 427/465/444
f 405/444/445 404/442/445 419/464/445 420/466/445
f 413/445/446 412/443/446 427/465/446 428/467/446
f 406/446/447 405/444/447 420/466/447 421/453/447
f 414/447/448 413/445/448 428/467/448 429/455/448
f 426/463/449 425/461/449 440/468/449 441/469/449
f 419/464/450 418/462/450 433/470/450 434/471/450
f 427/465/451 426/463/451 441/469/451 442/472/451
f 420/466/452 419/464/452 434/471/452 435/473/452
f 428/467/453 427/465/453 442/472/453 443/474/453
f 421/453/454 420/466/454 435/473/454 436/475/454
f 429/455/455 428/467/455 443/474/455 444/476/455
f 422/454/456 421/453/456 436/475/456 437/477/456
f 430/456/457 429/455/457 444/476/457 445/478/457
f 423/457/458 422/454/458 437/477/458 438/479/458
f 431/458/459 430/456/459 445/478/459 446/480/459
f 424/459/460 423/457/460 438/479/460 439/481/460
f 432/460/461 431/458/461 446/480/461 447/482/461
f 425/461/462 424/459/462 439/481/462 440/468/462
f 418/462/463 297/18/463 433/470/463
f 206/20/464 432/460/464 447/482/464
f 445/478/465 444/476/465 459/483/465 460/484/465
f 438/479/466 437/477/466 452/485/466 453/486/466
f 446/480/467 445/478/467 460/484/467 461/487/467
f 439/481/468 438/479/468 453/486/468 454/488/468
f 447/482/469 446/480/469 461/487/469 462/489/469
f 440/468/470 439/481/470 454/488/470 455/490/470
f 433/470/471 297/18/471 448/491/471
f 206/20/472 447/482/472 462/489/472
f 441/469/473 440/468/473 455/490/473 456/492/473
f 434/471/474 433/470/474 448/491/474 449/493/474
f 442/472/475 441/469/475 456/492/475 457/494/475
f 435/473/476 434/471/476 449/493/476 450/495/476
f 443/474/477 442/472/477 457/494/477 458/496/477
f 436/475/478 435/473/478 450/495/478 451/497/478
f 444/476/479 443/474/479 458/496/479 459/483/479
f 437/477/480 436/475/480 451/497/480 452/485/480
f 449/493/481 448/491/481 463/498/481 464/499/481
f 457/494/482 456/492/482 471/500/482 472/501/482
f 450/495/483 449/493/483 464/499/483 465/502/483
f 458/496/484 457/494/484 472/501/484 473/503/484
f 451/497/485 450/495/485 465/502/485 466/504/485
f 459/483/486 458/496/486 473/503/486 474/505/486
f 452/485/487 451/497/487 466/504/487 467/506/487
f 460/484/488 459/483/488 474/505/488 475/507/488
f 453/486/489 452/485/489 467/506/489 468/508/489
f 461/487/490 460/484/490 475/507/490 476/509/490
f 454/488/491 453/486/491 468/508/491 469/510/491
f 462/489/492 461/487/492 476/509/492 477/511/492
f 455/490/493 454/488/493 469/510/493 470/512/493
f 448/491/494 297/18/494 463/498/494
f 206/20/495 462/489/495 477/511/495
f 456/492/496 455/490/496 470/512/496 471/500/496
f 468/508/497 467/506/497 5/6/497 6/5/497
f 476/509/498 475/507/498 10/1/498 481/9/498
f 469/510/499 468/508/499 6/5/499 7/11/499
f 477/511/500 476/509/500 481/9/500 482/13/500
f 470/512/501 469/510/501 7/11/501 8/15/501
f 463/498/502 297/18/502 1/17/502
f 206/20/503 477/511/503 482/21/503
f 471/500/504 470/512/504 8/15/504 9/23/504
f 464/499/505 463/498/505 1/17/505 2/25/505
f 472/501/506 471/500/506 9/23/506 478/27/506
f 465/502/507 464/499/507 2/25/507 3/29/507
f 473/503/508 472/501/508 478/27/508 479/31/508
f 466/504/509 465/502/509 3/29/509 4/33/509
f 474/505/510 473/503/510 479/31/510 480/2/510
f 467/506/511 466/504/511 4/33/511 5/6/511
f 475/507/512 474/505/512 480/2/512 10/1/512
